[2020-12-16T16:59:17.880+0000][12087][gc] Using G1
[2020-12-16T16:59:18.271+0000][12087][gc,init] Version: 15.0.1+9 (release)
[2020-12-16T16:59:18.271+0000][12087][gc,init] CPUs: 2 total, 2 available
[2020-12-16T16:59:18.271+0000][12087][gc,init] Memory: 2827M
[2020-12-16T16:59:18.271+0000][12087][gc,init] Large Page Support: Disabled
[2020-12-16T16:59:18.271+0000][12087][gc,init] NUMA Support: Disabled
[2020-12-16T16:59:18.271+0000][12087][gc,init] Compressed Oops: Enabled (32-bit)
[2020-12-16T16:59:18.271+0000][12087][gc,init] Heap Region Size: 1M
[2020-12-16T16:59:18.271+0000][12087][gc,init] Heap Min Capacity: 1G
[2020-12-16T16:59:18.271+0000][12087][gc,init] Heap Initial Capacity: 1G
[2020-12-16T16:59:18.271+0000][12087][gc,init] Heap Max Capacity: 1G
[2020-12-16T16:59:18.271+0000][12087][gc,init] Pre-touch: Enabled
[2020-12-16T16:59:18.271+0000][12087][gc,init] Parallel Workers: 2
[2020-12-16T16:59:18.271+0000][12087][gc,init] Concurrent Workers: 1
[2020-12-16T16:59:18.271+0000][12087][gc,init] Concurrent Refinement Workers: 2
[2020-12-16T16:59:18.271+0000][12087][gc,init] Periodic GC: Disabled
[2020-12-16T16:59:18.271+0000][12087][gc,cds ] Mark closed archive regions in map: [0x00000000fff00000, 0x00000000fff7bff8]
[2020-12-16T16:59:18.271+0000][12087][gc,cds ] Mark open archive regions in map: [0x00000000ffe00000, 0x00000000ffe51ff8]
[2020-12-16T16:59:18.271+0000][12087][gc,metaspace] CDS archive(s) mapped at: [0x0000000800000000-0x0000000800b2a000-0x0000000800b2a000), size 11706368, SharedBaseAddress: 0x0000000800000000, ArchiveRelocationMode: 0.
[2020-12-16T16:59:18.271+0000][12087][gc,metaspace] Compressed class space mapped at: 0x0000000800b2c000-0x0000000840b2c000, size: 1073741824
[2020-12-16T16:59:18.271+0000][12087][gc,metaspace] Narrow klass base: 0x0000000800000000, Narrow klass shift: 3, Narrow klass range: 0x100000000
[2020-12-16T16:59:18.659+0000][12087][safepoint   ] Safepoint "ICBufferFull", Time since last: 376220593 ns, Reaching safepoint: 94511 ns, At safepoint: 2995 ns, Total: 97506 ns
[2020-12-16T16:59:19.428+0000][12087][safepoint   ] Safepoint "ICBufferFull", Time since last: 768531968 ns, Reaching safepoint: 96151 ns, At safepoint: 15345 ns, Total: 111496 ns
[2020-12-16T16:59:19.675+0000][12087][gc,start    ] GC(0) Pause Young (Normal) (G1 Evacuation Pause)
[2020-12-16T16:59:19.675+0000][12087][gc,task     ] GC(0) Using 2 workers of 2 for evacuation
[2020-12-16T16:59:19.675+0000][12087][gc,age      ] GC(0) Desired survivor size 3670016 bytes, new threshold 15 (max threshold 15)
[2020-12-16T16:59:19.680+0000][12087][gc,age      ] GC(0) Age table with threshold 15 (max threshold 15)
[2020-12-16T16:59:19.680+0000][12087][gc,age      ] GC(0) - age   1:    5907872 bytes,    5907872 total
[2020-12-16T16:59:19.680+0000][12087][gc,phases   ] GC(0)   Pre Evacuate Collection Set: 0.1ms
[2020-12-16T16:59:19.680+0000][12087][gc,phases   ] GC(0)   Merge Heap Roots: 0.1ms
[2020-12-16T16:59:19.680+0000][12087][gc,phases   ] GC(0)   Evacuate Collection Set: 4.5ms
[2020-12-16T16:59:19.680+0000][12087][gc,phases   ] GC(0)   Post Evacuate Collection Set: 0.7ms
[2020-12-16T16:59:19.680+0000][12087][gc,phases   ] GC(0)   Other: 0.3ms
[2020-12-16T16:59:19.680+0000][12087][gc,heap     ] GC(0) Eden regions: 51->0(45)
[2020-12-16T16:59:19.680+0000][12087][gc,heap     ] GC(0) Survivor regions: 0->6(7)
[2020-12-16T16:59:19.680+0000][12087][gc,heap     ] GC(0) Old regions: 0->0
[2020-12-16T16:59:19.680+0000][12087][gc,heap     ] GC(0) Archive regions: 2->2
[2020-12-16T16:59:19.680+0000][12087][gc,heap     ] GC(0) Humongous regions: 1->1
[2020-12-16T16:59:19.680+0000][12087][gc,metaspace] GC(0) Metaspace: 13613K(14080K)->13613K(14080K) NonClass: 11986K(12288K)->11986K(12288K) Class: 1626K(1792K)->1626K(1792K)
[2020-12-16T16:59:19.680+0000][12087][gc          ] GC(0) Pause Young (Normal) (G1 Evacuation Pause) 52M->7M(1024M) 5.805ms
[2020-12-16T16:59:19.680+0000][12087][gc,cpu      ] GC(0) User=0.01s Sys=0.00s Real=0.00s
[2020-12-16T16:59:19.681+0000][12087][safepoint   ] Safepoint "G1CollectForAllocation", Time since last: 246666709 ns, Reaching safepoint: 97385 ns, At safepoint: 5886026 ns, Total: 5983411 ns
[2020-12-16T16:59:19.951+0000][12087][gc,start    ] GC(1) Pause Young (Normal) (G1 Evacuation Pause)
[2020-12-16T16:59:19.951+0000][12087][gc,task     ] GC(1) Using 2 workers of 2 for evacuation
[2020-12-16T16:59:19.951+0000][12087][gc,age      ] GC(1) Desired survivor size 3670016 bytes, new threshold 1 (max threshold 15)
[2020-12-16T16:59:19.957+0000][12087][gc,age      ] GC(1) Age table with threshold 1 (max threshold 15)
[2020-12-16T16:59:19.957+0000][12087][gc,age      ] GC(1) - age   1:    1719216 bytes,    1719216 total
[2020-12-16T16:59:19.957+0000][12087][gc,phases   ] GC(1)   Pre Evacuate Collection Set: 0.1ms
[2020-12-16T16:59:19.957+0000][12087][gc,phases   ] GC(1)   Merge Heap Roots: 0.0ms
[2020-12-16T16:59:19.957+0000][12087][gc,phases   ] GC(1)   Evacuate Collection Set: 5.6ms
[2020-12-16T16:59:19.957+0000][12087][gc,phases   ] GC(1)   Post Evacuate Collection Set: 0.5ms
[2020-12-16T16:59:19.957+0000][12087][gc,phases   ] GC(1)   Other: 0.1ms
[2020-12-16T16:59:19.957+0000][12087][gc,heap     ] GC(1) Eden regions: 45->0(49)
[2020-12-16T16:59:19.957+0000][12087][gc,heap     ] GC(1) Survivor regions: 6->2(7)
[2020-12-16T16:59:19.957+0000][12087][gc,heap     ] GC(1) Old regions: 0->6
[2020-12-16T16:59:19.957+0000][12087][gc,heap     ] GC(1) Archive regions: 2->2
[2020-12-16T16:59:19.957+0000][12087][gc,heap     ] GC(1) Humongous regions: 1->1
[2020-12-16T16:59:19.957+0000][12087][gc,metaspace] GC(1) Metaspace: 14362K(14976K)->14362K(14976K) NonClass: 12671K(13056K)->12671K(13056K) Class: 1690K(1920K)->1690K(1920K)
[2020-12-16T16:59:19.957+0000][12087][gc          ] GC(1) Pause Young (Normal) (G1 Evacuation Pause) 52M->9M(1024M) 6.490ms
[2020-12-16T16:59:19.957+0000][12087][gc,cpu      ] GC(1) User=0.01s Sys=0.00s Real=0.01s
[2020-12-16T16:59:19.957+0000][12087][safepoint   ] Safepoint "G1CollectForAllocation", Time since last: 270244748 ns, Reaching safepoint: 89767 ns, At safepoint: 6550127 ns, Total: 6639894 ns
[2020-12-16T16:59:20.077+0000][12087][safepoint   ] Safepoint "ICBufferFull", Time since last: 119399578 ns, Reaching safepoint: 166874 ns, At safepoint: 27902 ns, Total: 194776 ns
[2020-12-16T16:59:20.085+0000][12087][safepoint   ] Safepoint "ICBufferFull", Time since last: 6213422 ns, Reaching safepoint: 1189456 ns, At safepoint: 126198 ns, Total: 1315654 ns
[2020-12-16T16:59:20.090+0000][12087][safepoint   ] Safepoint "ICBufferFull", Time since last: 5048323 ns, Reaching safepoint: 85275 ns, At safepoint: 3307 ns, Total: 88582 ns
[2020-12-16T16:59:20.092+0000][12087][safepoint   ] Safepoint "ICBufferFull", Time since last: 1902755 ns, Reaching safepoint: 20741 ns, At safepoint: 1792 ns, Total: 22533 ns
[2020-12-16T16:59:20.095+0000][12087][safepoint   ] Safepoint "ICBufferFull", Time since last: 3512793 ns, Reaching safepoint: 85293 ns, At safepoint: 4207 ns, Total: 89500 ns
[2020-12-16T16:59:20.097+0000][12087][safepoint   ] Safepoint "ICBufferFull", Time since last: 2170837 ns, Reaching safepoint: 51614 ns, At safepoint: 16101 ns, Total: 67715 ns
[2020-12-16T16:59:20.100+0000][12087][safepoint   ] Safepoint "ICBufferFull", Time since last: 2222127 ns, Reaching safepoint: 56163 ns, At safepoint: 4181 ns, Total: 60344 ns
[2020-12-16T16:59:20.102+0000][12087][safepoint   ] Safepoint "ICBufferFull", Time since last: 2014788 ns, Reaching safepoint: 31875 ns, At safepoint: 2281 ns, Total: 34156 ns
[2020-12-16T16:59:20.104+0000][12087][safepoint   ] Safepoint "ICBufferFull", Time since last: 2042273 ns, Reaching safepoint: 30690 ns, At safepoint: 2026 ns, Total: 32716 ns
[2020-12-16T16:59:20.107+0000][12087][safepoint   ] Safepoint "ICBufferFull", Time since last: 2628733 ns, Reaching safepoint: 65882 ns, At safepoint: 2649 ns, Total: 68531 ns
[2020-12-16T16:59:20.109+0000][12087][safepoint   ] Safepoint "ICBufferFull", Time since last: 2236794 ns, Reaching safepoint: 30325 ns, At safepoint: 2096 ns, Total: 32421 ns
[2020-12-16T16:59:20.111+0000][12087][safepoint   ] Safepoint "ICBufferFull", Time since last: 2138743 ns, Reaching safepoint: 61617 ns, At safepoint: 15274 ns, Total: 76891 ns
[2020-12-16T16:59:20.114+0000][12087][safepoint   ] Safepoint "ICBufferFull", Time since last: 2925981 ns, Reaching safepoint: 64290 ns, At safepoint: 4035 ns, Total: 68325 ns
[2020-12-16T16:59:20.116+0000][12087][safepoint   ] Safepoint "ICBufferFull", Time since last: 2128176 ns, Reaching safepoint: 68405 ns, At safepoint: 4242 ns, Total: 72647 ns
[2020-12-16T16:59:20.118+0000][12087][safepoint   ] Safepoint "ICBufferFull", Time since last: 2120709 ns, Reaching safepoint: 41707 ns, At safepoint: 2552 ns, Total: 44259 ns
[2020-12-16T16:59:20.248+0000][12087][gc,start    ] GC(2) Pause Young (Normal) (G1 Evacuation Pause)
[2020-12-16T16:59:20.248+0000][12087][gc,task     ] GC(2) Using 2 workers of 2 for evacuation
[2020-12-16T16:59:20.248+0000][12087][gc,age      ] GC(2) Desired survivor size 3670016 bytes, new threshold 15 (max threshold 15)
[2020-12-16T16:59:20.252+0000][12087][gc,age      ] GC(2) Age table with threshold 15 (max threshold 15)
[2020-12-16T16:59:20.252+0000][12087][gc,age      ] GC(2) - age   1:    2453472 bytes,    2453472 total
[2020-12-16T16:59:20.252+0000][12087][gc,age      ] GC(2) - age   2:     928712 bytes,    3382184 total
[2020-12-16T16:59:20.252+0000][12087][gc,phases   ] GC(2)   Pre Evacuate Collection Set: 0.4ms
[2020-12-16T16:59:20.252+0000][12087][gc,phases   ] GC(2)   Merge Heap Roots: 0.1ms
[2020-12-16T16:59:20.252+0000][12087][gc,phases   ] GC(2)   Evacuate Collection Set: 2.8ms
[2020-12-16T16:59:20.252+0000][12087][gc,phases   ] GC(2)   Post Evacuate Collection Set: 0.9ms
[2020-12-16T16:59:20.252+0000][12087][gc,phases   ] GC(2)   Other: 0.2ms
[2020-12-16T16:59:20.252+0000][12087][gc,heap     ] GC(2) Eden regions: 49->0(57)
[2020-12-16T16:59:20.252+0000][12087][gc,heap     ] GC(2) Survivor regions: 2->4(7)
[2020-12-16T16:59:20.252+0000][12087][gc,heap     ] GC(2) Old regions: 6->6
[2020-12-16T16:59:20.252+0000][12087][gc,heap     ] GC(2) Archive regions: 2->2
[2020-12-16T16:59:20.252+0000][12087][gc,heap     ] GC(2) Humongous regions: 2->1
[2020-12-16T16:59:20.252+0000][12087][gc,metaspace] GC(2) Metaspace: 16103K(16768K)->16103K(16768K) NonClass: 14149K(14592K)->14149K(14592K) Class: 1954K(2176K)->1954K(2176K)
[2020-12-16T16:59:20.252+0000][12087][gc          ] GC(2) Pause Young (Normal) (G1 Evacuation Pause) 59M->10M(1024M) 4.410ms
[2020-12-16T16:59:20.252+0000][12087][gc,cpu      ] GC(2) User=0.00s Sys=0.00s Real=0.00s
[2020-12-16T16:59:20.252+0000][12087][safepoint   ] Safepoint "G1CollectForAllocation", Time since last: 129085450 ns, Reaching safepoint: 62195 ns, At safepoint: 4489599 ns, Total: 4551794 ns
[2020-12-16T16:59:20.469+0000][12087][gc,start    ] GC(3) Pause Young (Normal) (G1 Evacuation Pause)
[2020-12-16T16:59:20.470+0000][12087][gc,task     ] GC(3) Using 2 workers of 2 for evacuation
[2020-12-16T16:59:20.470+0000][12087][gc,age      ] GC(3) Desired survivor size 4194304 bytes, new threshold 15 (max threshold 15)
[2020-12-16T16:59:20.475+0000][12087][gc,age      ] GC(3) Age table with threshold 15 (max threshold 15)
[2020-12-16T16:59:20.475+0000][12087][gc,age      ] GC(3) - age   1:    1631120 bytes,    1631120 total
[2020-12-16T16:59:20.475+0000][12087][gc,age      ] GC(3) - age   2:    1375064 bytes,    3006184 total
[2020-12-16T16:59:20.475+0000][12087][gc,age      ] GC(3) - age   3:     928552 bytes,    3934736 total
[2020-12-16T16:59:20.475+0000][12087][gc,phases   ] GC(3)   Pre Evacuate Collection Set: 0.2ms
[2020-12-16T16:59:20.475+0000][12087][gc,phases   ] GC(3)   Merge Heap Roots: 0.0ms
[2020-12-16T16:59:20.475+0000][12087][gc,phases   ] GC(3)   Evacuate Collection Set: 3.5ms
[2020-12-16T16:59:20.475+0000][12087][gc,phases   ] GC(3)   Post Evacuate Collection Set: 1.8ms
[2020-12-16T16:59:20.475+0000][12087][gc,phases   ] GC(3)   Other: 0.1ms
[2020-12-16T16:59:20.475+0000][12087][gc,heap     ] GC(3) Eden regions: 57->0(610)
[2020-12-16T16:59:20.475+0000][12087][gc,heap     ] GC(3) Survivor regions: 4->4(8)
[2020-12-16T16:59:20.475+0000][12087][gc,heap     ] GC(3) Old regions: 6->6
[2020-12-16T16:59:20.475+0000][12087][gc,heap     ] GC(3) Archive regions: 2->2
[2020-12-16T16:59:20.475+0000][12087][gc,heap     ] GC(3) Humongous regions: 1->1
[2020-12-16T16:59:20.475+0000][12087][gc,metaspace] GC(3) Metaspace: 17471K(18176K)->17471K(18176K) NonClass: 15350K(15872K)->15350K(15872K) Class: 2120K(2304K)->2120K(2304K)
[2020-12-16T16:59:20.475+0000][12087][gc          ] GC(3) Pause Young (Normal) (G1 Evacuation Pause) 67M->11M(1024M) 5.637ms
[2020-12-16T16:59:20.475+0000][12087][gc,cpu      ] GC(3) User=0.00s Sys=0.00s Real=0.01s
[2020-12-16T16:59:20.475+0000][12087][safepoint   ] Safepoint "G1CollectForAllocation", Time since last: 217338718 ns, Reaching safepoint: 106037 ns, At safepoint: 5715579 ns, Total: 5821616 ns
[2020-12-16T16:59:21.398+0000][12087][gc,start    ] GC(4) Pause Young (Normal) (G1 Evacuation Pause)
[2020-12-16T16:59:21.398+0000][12087][gc,task     ] GC(4) Using 2 workers of 2 for evacuation
[2020-12-16T16:59:21.399+0000][12087][gc,age      ] GC(4) Desired survivor size 40370176 bytes, new threshold 15 (max threshold 15)
[2020-12-16T16:59:21.406+0000][12087][gc,age      ] GC(4) Age table with threshold 15 (max threshold 15)
[2020-12-16T16:59:21.406+0000][12087][gc,age      ] GC(4) - age   1:    5125408 bytes,    5125408 total
[2020-12-16T16:59:21.406+0000][12087][gc,age      ] GC(4) - age   2:    1364336 bytes,    6489744 total
[2020-12-16T16:59:21.406+0000][12087][gc,age      ] GC(4) - age   3:    1374600 bytes,    7864344 total
[2020-12-16T16:59:21.406+0000][12087][gc,age      ] GC(4) - age   4:     928472 bytes,    8792816 total
[2020-12-16T16:59:21.406+0000][12087][gc,phases   ] GC(4)   Pre Evacuate Collection Set: 0.3ms
[2020-12-16T16:59:21.406+0000][12087][gc,phases   ] GC(4)   Merge Heap Roots: 0.3ms
[2020-12-16T16:59:21.406+0000][12087][gc,phases   ] GC(4)   Evacuate Collection Set: 5.8ms
[2020-12-16T16:59:21.406+0000][12087][gc,phases   ] GC(4)   Post Evacuate Collection Set: 0.8ms
[2020-12-16T16:59:21.406+0000][12087][gc,phases   ] GC(4)   Other: 0.3ms
[2020-12-16T16:59:21.406+0000][12087][gc,heap     ] GC(4) Eden regions: 610->0(562)
[2020-12-16T16:59:21.406+0000][12087][gc,heap     ] GC(4) Survivor regions: 4->9(77)
[2020-12-16T16:59:21.406+0000][12087][gc,heap     ] GC(4) Old regions: 6->6
[2020-12-16T16:59:21.406+0000][12087][gc,heap     ] GC(4) Archive regions: 2->2
[2020-12-16T16:59:21.406+0000][12087][gc,heap     ] GC(4) Humongous regions: 1->1
[2020-12-16T16:59:21.406+0000][12087][gc,metaspace] GC(4) Metaspace: 19100K(20224K)->19100K(20224K) NonClass: 16760K(17664K)->16760K(17664K) Class: 2339K(2560K)->2339K(2560K)
[2020-12-16T16:59:21.406+0000][12087][gc          ] GC(4) Pause Young (Normal) (G1 Evacuation Pause) 621M->16M(1024M) 7.510ms
[2020-12-16T16:59:21.406+0000][12087][gc,cpu      ] GC(4) User=0.01s Sys=0.01s Real=0.01s
[2020-12-16T16:59:21.406+0000][12087][safepoint   ] Safepoint "G1CollectForAllocation", Time since last: 922445529 ns, Reaching safepoint: 808151 ns, At safepoint: 7591003 ns, Total: 8399154 ns
[2020-12-16T16:59:21.991+0000][12087][gc,start    ] GC(5) Pause Young (Normal) (G1 Evacuation Pause)
[2020-12-16T16:59:21.991+0000][12087][gc,task     ] GC(5) Using 2 workers of 2 for evacuation
[2020-12-16T16:59:21.991+0000][12087][gc,age      ] GC(5) Desired survivor size 37748736 bytes, new threshold 15 (max threshold 15)
[2020-12-16T16:59:21.998+0000][12087][gc,age      ] GC(5) Age table with threshold 15 (max threshold 15)
[2020-12-16T16:59:21.998+0000][12087][gc,age      ] GC(5) - age   1:    3515432 bytes,    3515432 total
[2020-12-16T16:59:21.998+0000][12087][gc,age      ] GC(5) - age   2:    4898736 bytes,    8414168 total
[2020-12-16T16:59:21.998+0000][12087][gc,age      ] GC(5) - age   3:    1364016 bytes,    9778184 total
[2020-12-16T16:59:21.998+0000][12087][gc,age      ] GC(5) - age   4:    1374584 bytes,   11152768 total
[2020-12-16T16:59:21.998+0000][12087][gc,age      ] GC(5) - age   5:     928472 bytes,   12081240 total
[2020-12-16T16:59:21.998+0000][12087][gc,phases   ] GC(5)   Pre Evacuate Collection Set: 0.2ms
[2020-12-16T16:59:21.998+0000][12087][gc,phases   ] GC(5)   Merge Heap Roots: 0.1ms
[2020-12-16T16:59:21.998+0000][12087][gc,phases   ] GC(5)   Evacuate Collection Set: 6.2ms
[2020-12-16T16:59:21.998+0000][12087][gc,phases   ] GC(5)   Post Evacuate Collection Set: 0.8ms
[2020-12-16T16:59:21.998+0000][12087][gc,phases   ] GC(5)   Other: 0.2ms
[2020-12-16T16:59:21.998+0000][12087][gc,heap     ] GC(5) Eden regions: 562->0(601)
[2020-12-16T16:59:21.998+0000][12087][gc,heap     ] GC(5) Survivor regions: 9->13(72)
[2020-12-16T16:59:21.998+0000][12087][gc,heap     ] GC(5) Old regions: 6->6
[2020-12-16T16:59:21.998+0000][12087][gc,heap     ] GC(5) Archive regions: 2->2
[2020-12-16T16:59:21.998+0000][12087][gc,heap     ] GC(5) Humongous regions: 1->1
[2020-12-16T16:59:21.998+0000][12087][gc,metaspace] GC(5) Metaspace: 19836K(21120K)->19836K(21120K) NonClass: 17387K(18432K)->17387K(18432K) Class: 2448K(2688K)->2448K(2688K)
[2020-12-16T16:59:21.998+0000][12087][gc          ] GC(5) Pause Young (Normal) (G1 Evacuation Pause) 578M->19M(1024M) 7.524ms
[2020-12-16T16:59:21.998+0000][12087][gc,cpu      ] GC(5) User=0.02s Sys=0.00s Real=0.01s
[2020-12-16T16:59:21.998+0000][12087][safepoint   ] Safepoint "G1CollectForAllocation", Time since last: 584426162 ns, Reaching safepoint: 78162 ns, At safepoint: 7596809 ns, Total: 7674971 ns
[2020-12-16T16:59:22.013+0000][12087][gc,start    ] GC(6) Pause Young (Concurrent Start) (Metadata GC Threshold)
[2020-12-16T16:59:22.013+0000][12087][gc,task     ] GC(6) Using 2 workers of 2 for evacuation
[2020-12-16T16:59:22.013+0000][12087][gc,age      ] GC(6) Desired survivor size 40370176 bytes, new threshold 15 (max threshold 15)
[2020-12-16T16:59:22.027+0000][12087][gc,age      ] GC(6) Age table with threshold 15 (max threshold 15)
[2020-12-16T16:59:22.027+0000][12087][gc,age      ] GC(6) - age   1:     179528 bytes,     179528 total
[2020-12-16T16:59:22.027+0000][12087][gc,age      ] GC(6) - age   2:    2641536 bytes,    2821064 total
[2020-12-16T16:59:22.027+0000][12087][gc,age      ] GC(6) - age   3:    4898736 bytes,    7719800 total
[2020-12-16T16:59:22.027+0000][12087][gc,age      ] GC(6) - age   4:    1364016 bytes,    9083816 total
[2020-12-16T16:59:22.027+0000][12087][gc,age      ] GC(6) - age   5:    1374584 bytes,   10458400 total
[2020-12-16T16:59:22.027+0000][12087][gc,age      ] GC(6) - age   6:     928472 bytes,   11386872 total
[2020-12-16T16:59:22.027+0000][12087][gc,phases   ] GC(6)   Pre Evacuate Collection Set: 0.2ms
[2020-12-16T16:59:22.027+0000][12087][gc,phases   ] GC(6)   Merge Heap Roots: 0.0ms
[2020-12-16T16:59:22.027+0000][12087][gc,phases   ] GC(6)   Evacuate Collection Set: 12.8ms
[2020-12-16T16:59:22.027+0000][12087][gc,phases   ] GC(6)   Post Evacuate Collection Set: 0.5ms
[2020-12-16T16:59:22.027+0000][12087][gc,phases   ] GC(6)   Other: 0.2ms
[2020-12-16T16:59:22.027+0000][12087][gc,heap     ] GC(6) Eden regions: 9->0(602)
[2020-12-16T16:59:22.027+0000][12087][gc,heap     ] GC(6) Survivor regions: 13->12(77)
[2020-12-16T16:59:22.027+0000][12087][gc,heap     ] GC(6) Old regions: 6->6
[2020-12-16T16:59:22.027+0000][12087][gc,heap     ] GC(6) Archive regions: 2->2
[2020-12-16T16:59:22.027+0000][12087][gc,heap     ] GC(6) Humongous regions: 1->1
[2020-12-16T16:59:22.027+0000][12087][gc,metaspace] GC(6) Metaspace: 19858K(21248K)->19858K(21248K) NonClass: 17404K(18432K)->17404K(18432K) Class: 2453K(2816K)->2453K(2816K)
[2020-12-16T16:59:22.027+0000][12087][gc          ] GC(6) Pause Young (Concurrent Start) (Metadata GC Threshold) 28M->18M(1024M) 13.824ms
[2020-12-16T16:59:22.027+0000][12087][gc,cpu      ] GC(6) User=0.02s Sys=0.00s Real=0.01s
[2020-12-16T16:59:22.027+0000][12087][safepoint   ] Safepoint "CollectForMetadataAllocation", Time since last: 14917738 ns, Reaching safepoint: 53554 ns, At safepoint: 14034613 ns, Total: 14088167 ns
[2020-12-16T16:59:22.027+0000][12087][gc          ] GC(7) Concurrent Cycle
[2020-12-16T16:59:22.029+0000][12087][gc,marking  ] GC(7) Concurrent Clear Claimed Marks
[2020-12-16T16:59:22.029+0000][12087][gc,marking  ] GC(7) Concurrent Clear Claimed Marks 1.888ms
[2020-12-16T16:59:22.029+0000][12087][gc,marking  ] GC(7) Concurrent Scan Root Regions
[2020-12-16T16:59:22.042+0000][12087][gc,marking  ] GC(7) Concurrent Scan Root Regions 13.143ms
[2020-12-16T16:59:22.042+0000][12087][gc,marking  ] GC(7) Concurrent Mark (4.169s)
[2020-12-16T16:59:22.043+0000][12087][gc,marking  ] GC(7) Concurrent Mark From Roots
[2020-12-16T16:59:22.045+0000][12087][gc,task     ] GC(7) Using 1 workers of 1 for marking
[2020-12-16T16:59:22.055+0000][12087][gc,marking  ] GC(7) Concurrent Mark From Roots 12.010ms
[2020-12-16T16:59:22.055+0000][12087][gc,marking  ] GC(7) Concurrent Preclean
[2020-12-16T16:59:22.055+0000][12087][gc,marking  ] GC(7) Concurrent Preclean 0.059ms
[2020-12-16T16:59:22.055+0000][12087][gc,marking  ] GC(7) Concurrent Mark (4.169s, 4.181s) 12.146ms
[2020-12-16T16:59:22.055+0000][12087][gc,start    ] GC(7) Pause Remark
[2020-12-16T16:59:22.061+0000][12087][gc          ] GC(7) Pause Remark 27M->27M(1024M) 6.146ms
[2020-12-16T16:59:22.061+0000][12087][gc,cpu      ] GC(7) User=0.00s Sys=0.00s Real=0.00s
[2020-12-16T16:59:22.061+0000][12087][safepoint   ] Safepoint "G1Concurrent", Time since last: 27495219 ns, Reaching safepoint: 54581 ns, At safepoint: 6421793 ns, Total: 6476374 ns
[2020-12-16T16:59:22.061+0000][12087][gc,marking  ] GC(7) Concurrent Rebuild Remembered Sets
[2020-12-16T16:59:22.068+0000][12087][gc,marking  ] GC(7) Concurrent Rebuild Remembered Sets 6.304ms
[2020-12-16T16:59:22.068+0000][12087][gc,start    ] GC(7) Pause Cleanup
[2020-12-16T16:59:22.068+0000][12087][gc          ] GC(7) Pause Cleanup 27M->27M(1024M) 0.186ms
[2020-12-16T16:59:22.068+0000][12087][gc,cpu      ] GC(7) User=0.00s Sys=0.00s Real=0.00s
[2020-12-16T16:59:22.068+0000][12087][safepoint   ] Safepoint "G1Concurrent", Time since last: 6481673 ns, Reaching safepoint: 583620 ns, At safepoint: 217061 ns, Total: 800681 ns
[2020-12-16T16:59:22.068+0000][12087][gc,marking  ] GC(7) Concurrent Cleanup for Next Mark
[2020-12-16T16:59:22.076+0000][12087][gc,marking  ] GC(7) Concurrent Cleanup for Next Mark 7.229ms
[2020-12-16T16:59:22.076+0000][12087][gc          ] GC(7) Concurrent Cycle 48.511ms
[2020-12-16T16:59:22.278+0000][12087][gc,heap,exit] Heap
[2020-12-16T16:59:22.278+0000][12087][gc,heap,exit]  garbage-first heap   total 1048576K, used 109487K [0x00000000c0000000, 0x0000000100000000)
[2020-12-16T16:59:22.278+0000][12087][gc,heap,exit]   region size 1024K, 102 young (104448K), 12 survivors (12288K)
[2020-12-16T16:59:22.278+0000][12087][gc,heap,exit]  Metaspace       used 20688K, capacity 21865K, committed 22144K, reserved 1069056K
[2020-12-16T16:59:22.278+0000][12087][gc,heap,exit]   class space    used 2581K, capacity 2811K, committed 2944K, reserved 1048576K
